1 10 20
10 1 20
100 200 125
200 100 125
201 210 89
210 201 89
900 1000 174
1000 900 174
1 1 1
2 1 2
3 5 8
4 6 9
7 8 17
8 17 20
19 26 24
25 53 112
28 72 113
55 96 116
74 128 119
22 170 122
75 310 128
200 1015 179
1100 2200 182
2345 2900 209
1234 10000 262
5555 11111 268
9999 15151 276
15000 20000 279
12345 24680 282
21341 27890 308
27911 35353 311
102102 110110 354
100000 230630 386
210021 467103 449
350783 621674 470
625876 789123 509
837700 837997 525
1 999999 525
999999 1 525
950597 424283 525
895217 299601 525
516459 876019 525
134767 218577 386
707962 705922 305
904330 342333 525
63230 340099 443
345088 626467 509
273461 602860 470
632797 754928 504
350992 934499 525
60276 133425 354
232376 735926 509
124847 765262 509
138646 662580 509
209587 458550 449
561002 451790 470
627795 182201 509
26558 288282 443
794717 64788 509
928860 851453 476
825793 35072 509
171817 658571 509
365063 46609 443
657244 155171 509
469434 911890 525
410600 164447 449
379584 581692 470
552437 373109 470
869173 408592 525
91698 661075 509
748595 921957 525
479942 575333 470
766175 722606 424
810641 918652 525
420847 337278 449
966546 447077 525
586448 501003 470
736618 807568 468
965265 962678 414
591315 877341 525
335128 229545 443
642141 446820 509
806277 719247 468
70701 583345 470
350758 178519 443
187030 160581 365
134517 862302 525
95574 675524 509
539582 694457 509
175580 610245 470
351515 962567 525
815161 924641 525
363119 518823 470
79579 290925 443
374985 665214 509
46305 901126 525
981796 670819 525
700712 481288 509
220188 203035 386
239487 619171 470
313223 344519 384
925666 106800 525
486738 922905 525
251658 126420 443
290656 960275 525
755113 978146 525
477589 918035 525
988450 934385 507
379258 582687 470
660375 399815 509
990197 833280 525
857936 575622 525
715811 782013 468
991083 900138 507
415582 768052 509
283569 970956 525
332762 407864 441
541610 458597 470
992715 376477 525
438031 809726 509
374974 62297 443
190253 870006 525
981414 494553 525
804418 904959 525
790681 69269 509
780685 584808 509
815177 262925 509
266056 662737 509
884442 471056 525
895727 156416 525
369554 494189 449
243051 632980 509
460939 715782 509
876774 646601 525
880252 375571 525
403982 28389 443
784027 153209 509
525846 360097 470
237163 455388 449
939187 519154 525
137258 678091 509
648090 9986 509
923659 796335 525
943930 503896 525
443389 505387 444
762815 750598 424
817302 944463 525
234326 686767 509
610386 712036 509
332857 787590 509
786166 149142 509
429399 735319 509
919831 697050 525
126024 29457 354
160132 850200 525
543071 522001 408
943585 885850 507
577751 726699 509
452607 295534 449
74858 39507 340
843527 26714 525
365210 316203 441
532036 512172 439
562212 592885 434
694881 144156 509
211526 508169 449
327726 221767 443
688645 68511 509
152788 436365 449
370856 56508 443
348913 990169 525
68971 452447 449
257466 658825 509
501083 284195 449
436008 814905 509
49455 4440 324
110395 565046 470
464401 960814 525
981832 404292 525
90084 351756 443
538127 967608 525
223462 243434 443
862502 834847 525
644349 530636 509
618864 235881 470
410351 258460 449
365935 544533 470
633725 298638 509
611707 929592 525
7939 540182 470
967831 189998 525
978097 505131 525
133590 125339 344
262543 687129 509
221867 542256 470
951074 755164 525
594183 931494 525
853227 232259 525
808499 566951 509
314264 265557 407
951540 929277 507
972210 712624 525
245711 508372 449
733351 913621 525
80997 709619 509
844825 360976 525
561985 651382 509
479988 990161 525
831908 784941 468
764544 571456 509
353192 230840 441
906836 948703 507
727893 732218 380
941058 815416 525
911422 538892 525
720295 621424 509
573721 976741 525
923318 822213 525
159584 176133 370
709020 606251 509
407414 407999 268
653220 994170 525
715303 210976 509
178827 755272 509
763815 693993 504
917394 261368 525
598304 650146 509
142277 356521 443
196969 39854 383
571573 946844 525
912735 735035 525
331803 277011 389
822561 478577 509
119427 224803 386
348087 537758 470
681718 877409 525
7071 8719 252
84635 551183 470
402713 239622 441
638111 879960 525
739882 198437 509
799571 613989 509
994878 467881 525
338535 477025 449
581338 522656 452
682844 92870 509
328874 698384 509
294724 910457 525
506556 516294 470
968055 17380 525
495060 271358 449
892675 369283 525
200885 610258 470
194955 333267 443
563994 264679 470
770937 943885 525
395348 335974 441
863185 670695 525
973875 55369 525
601461 540072 452
783659 11480 509
384941 699577 509
129040 753684 509
359880 931422 525
494464 943297 525
37591 635125 509
650991 272967 509
799084 466189 509
78706 996581 525
199985 140232 383
504598 561959 470
827882 9149 509
791429 219410 509
853074 135541 525
242744 89222 443
704177 924967 525
833857 984432 525
421213 562847 470
29085 816031 509
531618 22282 470
242861 172469 443
189677 592896 470
92423 271169 443
628876 303709 509
328585 953808 525
573265 9885 470
7435 441234 449
946092 794848 525
942664 810684 525
139199 900679 525
723461 542511 509
434082 888222 525
499954 66896 449
392706 518326 470
519550 493844 470
829820 811591 450
518228 331489 470
655387 150541 509
332825 227387 443
8995 604646 470
922684 69222 525
329268 406121 441
602301 428896 470
236625 794882 509
111119 495760 449
155798 181380 383
477958 130500 449
581454 470635 470
714204 691831 504
525793 852873 525
223403 755817 509
956649 592867 525
648748 234383 509
32420 224540 386
722871 42607 509
968409 294438 525
673963 211309 509
185116 501239 449
254175 731516 509
992107 387531 525
143078 978217 525
880763 533560 525
537966 366440 470
600549 63813 470
825164 563219 509
57959 349604 443
601523 423918 470
231418 380907 441
897125 743972 525
826199 60510 509
623361 367892 470
782167 895567 525
942462 421317 525
22892 696901 509
929122 202264 525
672398 931036 525
163980 971665 525
916052 108191 525
681054 812882 504
173761 488419 449
809185 594010 509
165765 539334 470
220059 941757 525
217801 753615 509
93702 872684 525
588383 614116 403
392617 740080 509
143806 627968 509
419977 316370 449
234784 516822 470
798221 946859 525
784337 474772 509
334104 520796 470
112904 473065 449
101409 246138 443
740847 187555 509
440894 335026 449
746974 354987 509
903313 575280 525
632712 272709 509
79762 505304 449
155101 949599 525
768265 554000 509
810442 826813 450
408243 184946 443
497637 433745 444
562720 410186 470
298196 834420 509
766361 835876 468
439088 272330 449
794684 848716 525
448435 731680 509
157206 67618 383
445091 453396 387
557897 232617 470
182401 497740 449
200815 389829 443
688192 679433 398
621635 270611 470
40843 21302 324
257550 746258 509
72232 923649 525
686750 104300 509
902274 166240 525
400913 172150 443
189031 591158 470
418030 149039 449
209946 207520 311
677256 513082 509
103681 595189 470
961325 437434 525
812360 599160 509
596132 88212 470
159323 138706 383
193682 518662 470
713583 33015 509
558471 671422 509
586956 797623 509
912867 586354 525
211719 167739 373
49282 647410 509
650297 962868 525
749203 575594 509
821120 320475 509
639185 252007 509
563591 216340 470
45902 434366 449
148223 998099 525
61605 991131 525
270669 354204 441
199325 458290 449
546364 134800 470
649201 397008 509
772000 806557 468
673139 724952 504
271345 790205 509
566700 113259 470
764519 723394 424
370886 626535 509
301303 712700 509
425652 371736 449
546221 328581 470
31770 137084 354
61295 467203 449
942487 725839 525
967393 481859 525
495822 382226 449
794751 865873 525
959925 228482 525
392920 701744 509
918962 104244 525
869255 999154 507
177933 156467 370
371457 490095 449
884800 819012 525
938082 674476 525
153989 169235 383
839818 796577 525
201734 718675 509
310773 931494 525
546672 454799 470
555532 333657 470
227734 14416 386
958415 25199 525
290013 763942 509
659841 246622 509
340200 647112 509
956664 226096 525
4114 448218 449
296414 636229 509
522597 782097 509
28836 445002 449
908323 706474 525
837467 117665 509
772775 342307 509
899941 540701 525
318211 105984 443
64550 273436 443
698343 206743 509
524541 644119 509
960120 462677 525
148428 432275 449
434900 219298 449
504602 306115 449
685025 729983 504
486325 752503 509
564844 145806 470
34810 244703 443
522066 66853 470
725189 327056 509
611399 701770 509
898579 517466 525
861721 363668 525
586249 213045 470
217311 347159 443
966279 504663 525
544514 990570 525
33547 594034 470
134172 20468 354
602881 186592 470
236682 273512 407
322441 75138 443
576872 422165 470
243380 39482 443
394256 305319 441
615424 474438 470
33272 127682 354
275089 574987 470
580510 690267 509
39229 31938 324
376984 853246 525
845082 919196 476
229933 752362 509
441712 715498 509
560284 604821 434
486081 960317 525
983781 618813 525
86277 801786 509
379096 812663 509
185675 219005 386
154363 839072 525
69707 152950 375
970593 199723 525
615722 35864 470
463591 615124 470
237723 202337 443
952824 241215 525
89737 235985 443
548205 600392 434
161237 764196 509
919667 547305 525
511549 122894 449
116659 228519 386
721219 60407 509
354850 14052 443
602846 952254 525
129631 989028 525
741686 972776 525
871475 701043 525
521529 749586 509
226726 436837 449
3013 263386 443
981222 747427 525
995026 722688 525
332064 664965 509
621943 999696 525
346610 816833 509
219968 810882 509
387819 266635 441
794511 334086 509
777667 248159 509
425522 584738 470
714901 435699 509
374885 702278 509
123909 80561 354
642321 104427 509
22048 252290 443
739262 617604 509
817753 248376 509
417456 166969 449
832302 178538 509
852230 734650 525
230342 111625 386
618320 864720 525
916735 106919 525
96063 135579 354
41577 214765 383
33562 42856 324
499054 944698 525
640783 689788 442
874308 734828 525
577410 542177 452
963370 837925 507
873571 109702 525
457334 485611 444
363039 278275 441
786205 841626 525
875366 334255 525
561237 930280 525
845246 147679 525
394731 908516 525
753032 395020 509
964363 451044 525
963481 175399 525
35399 14370 311
983078 684344 525
617443 55442 470
966796 139794 525
674252 521365 509
986382 423503 525
712601 509278 509
624725 642745 509
916152 787244 525
426290 580398 470
513800 9375 470
533581 611062 452
500920 580756 470
112149 970563 525
249343 144882 443
748077 817899 468
450935 234589 449
218630 302780 443
3148 240485 443
835989 765998 468
877786 159808 525
467702 888951 525
57681 112854 354
946849 325220 525
341854 445538 449
589457 346105 470
809886 391306 509
866374 191870 525
588989 232779 470
904831 329699 525
220025 250561 443
942453 811605 525
207619 637441 509
436100 705937 509
622262 941507 525
264871 192577 443
655917 28598 509
65380 587927 470
714859 687281 504
451126 251365 449
414260 92894 449
322034 803336 509
413523 673972 509
986806 134077 525
120669 223603 386
90334 524510 470
190932 694281 509
296874 821632 509
997143 950178 458
735582 812328 468
524153 929751 525
93035 853030 525
356923 928405 525
504109 776090 509
758753 492258 509
126994 195517 383
806208 283139 509
449771 61637 449
397127 378195 436
166088 770356 509
81949 775793 509
946152 306322 525
957301 119308 525
173441 999087 525
177694 17765 383
80689 435080 449
785406 318893 509
27405 777695 509
361072 744992 509
437687 97487 449
906553 244689 525
999186 988028 440
697321 847508 525
90023 163646 383
871293 759724 525
172355 594091 470
299067 252640 407
775111 364786 509
128215 215202 383
595104 165591 470
930866 832871 525
208186 566317 470
895120 664019 525
201967 305669 443
22579 707558 509
305201 493857 449
435361 831062 509
488801 10884 449
380996 115787 443
133965 238016 443
289146 146719 443
15240 473331 449
487698 289901 449
369456 717148 509
739140 707176 424
447785 329536 449
23636 791718 509
215998 741609 509
477810 899840 525
655669 799048 504
174886 655870 509
618273 677247 509
412669 116009 449
313215 386400 441
869282 5621 525
766333 558092 509
988133 901768 507
524131 978623 525
676628 742891 504
677606 345798 509
652778 495525 509
924076 682779 525
141494 228597 386
383024 164157 443
917104 711066 525
361444 994697 525
265406 263983 332
913860 767496 525
372585 626583 509
200703 914305 525
504653 655959 509
461596 917844 525
522750 860350 525
317634 43600 443
322867 325208 384
849255 161614 525
274538 548435 470
128996 225945 386
454359 161003 449
835571 655416 504
191451 716321 509
147657 113247 375
866894 378769 525
27062 710271 509
542862 756742 509
679818 873553 525
740149 466863 509
297295 389537 441
114723 212600 383
231732 296338 407
22221 171532 383
836392 477196 509
263971 247491 407
543895 184462 470
432519 985004 525
657106 139228 509
547145 707822 509
79679 775744 509
367812 863509 525
621649 531135 452
385185 91592 443
150661 66284 375
312298 717724 509
945279 504175 525
36589 636774 509
104254 546981 470
189385 6779 383
54255 412935 449
711104 420180 509
815736 150940 509
684825 23023 509
750120 33913 509
30444 968369 525
381861 906885 525
932734 659609 525
561336 368551 470
491281 628166 509
341683 527330 470
453413 43462 449
684624 26676 509
258461 418834 449
629494 731671 504
124512 974436 525
183114 410153 449
112507 375363 443
255034 326293 407
897175 153763 525
957904 932961 507
995909 502255 525
764005 916501 525
584640 796250 509
130405 113769 349
550527 216667 470
781661 341989 509
633213 984564 525
525198 457499 470
776681 983566 525
767487 495331 509
625065 445546 470
767273 561981 509
772620 73777 509
620706 974834 525
269705 971597 525
658340 882110 525
494441 421275 444
706162 183802 509
999247 102720 525
367088 276403 441
778177 650545 504
965887 270137 525
172782 20499 383
448596 274897 449
568478 870095 525
904862 335071 525
155554 752982 509
481807 530890 470
175695 471176 449
90478 465993 449
192417 516991 470
273843 295438 389
824356 391728 509
323263 212915 443
525355 973624 525
108494 778333 509
49028 595515 470
534321 751366 509
293098 683635 509
544503 596474 452
809746 459044 509
745082 177691 509
153247 800025 509
286520 264954 407
538472 498672 470
356682 683102 509
986375 34365 525
595860 573559 434
395263 437893 449
997849 495922 525
525591 83035 470
949281 454211 525
714194 877444 525
734283 476170 509
701844 498931 509
269424 723556 509
820353 549107 509
256079 300177 407
921459 377131 525
48874 276054 443
402136 301228 441
704503 642570 442
993152 750376 525
611166 997528 525
35052 317421 443
719331 97770 509
352543 550837 470
605232 246025 470
742365 613464 509
321883 308095 384
214078 59709 383
698799 541332 509
285020 947501 525
560059 628094 509
723574 729612 362
505937 64809 449
913180 153511 525
977285 710733 525
247925 309884 407
694293 466475 509
915471 26457 525
626284 109698 470
138086 652079 509
855453 15506 525
225914 215243 386
803976 444295 509
418077 992968 525
877413 586012 525
852360 792101 525
190820 76107 383
53752 401571 443
674757 251688 509
425251 675826 509
103807 836818 509
585311 918598 525
770169 117480 509
252558 724497 509
514870 760957 509
250572 114114 443
16838 69346 340
480810 311569 449
503943 878192 525
944933 170090 525
403466 289210 441
148882 106301 375
730748 310183 509
790150 477343 509
687846 461580 509
653144 496918 509
559339 929484 525
460278 66269 449
262788 847726 525
153245 480761 449
966484 575382 525
883381 916381 476
67430 718921 509
325292 607999 470
829484 247914 509
705010 229026 509
842413 786441 525
654846 403367 509
415649 795842 509
267941 498914 449
721541 776125 468
675722 220326 509
243380 592978 470
247667 455933 449
922025 446905 525
868723 830258 525
222576 168640 386
891324 403871 525
602992 203046 470
841997 889449 445
735224 980336 525
405618 316477 441
629100 151420 509
750968 380259 509
25505 751392 509
489313 607339 470
866064 429637 525
200906 390997 443
150684 582802 470
672934 140343 509
738928 74833 509
369801 224407 443
270864 568812 470
633279 817688 504
514803 551437 452
535132 586739 452
167615 805842 509
817174 104266 509
663793 381877 509
940706 837818 507
351133 871848 525
710743 999207 525
754834 634393 504
527956 637797 509
672380 691523 398
945332 164004 525
520766 329515 470
220588 235087 443
978470 759096 525
580510 546481 452
747443 428966 509
671106 802515 504
510301 966696 525
239296 748271 509
364887 553685 470
823513 132835 509
911780 761512 525
787053 512409 509
89947 588888 470
459951 523865 470
165722 646541 509
288081 785824 509
362302 805239 509
780929 452139 509
104001 698209 509
82032 908105 525
421057 826366 509
409955 288265 441
877661 340480 525
382913 120927 443
619525 241926 470
922653 169477 525
523792 122951 470
101263 906946 525
974315 117749 525
384757 966807 525
176095 31098 383
273278 575002 470
907903 960819 507
828334 638489 504
757524 495116 509
787170 116935 509
944700 431190 525
577129 149700 470
531003 455219 470
836516 5706 509
154552 153623 352
476078 441830 444
277917 10402 443
701959 716787 504
189045 39772 383
363952 252820 441
356920 615797 470
290385 806024 509
246374 586443 470
451069 402942 449
587231 518488 452
946743 259573 525
458303 854253 525
374683 729666 509
60286 482259 449
178062 248055 443
87863 386733 443
538420 485355 470
42017 229672 386
735101 931216 525
835091 447774 509
637683 923830 525
122762 294181 443
794731 230450 509
740614 806373 468
861146 263533 525
274571 555871 470
74866 609453 470
750411 904607 525
244965 216912 443
308515 234515 407
875586 350453 525
997748 547876 525
730955 231168 509
578002 594180 434
960988 795038 525
772738 920453 525
470732 265114 449
171213 880514 525
510984 120336 449
559744 217171 470
265556 779630 509
994904 739589 525
180900 14509 383
972940 65695 525
991290 660464 525
102471 848522 525
283593 421532 449
901467 448394 525
926809 607193 525
150692 814752 509
786213 843471 525
72523 108454 354
861261 266624 525
244576 651695 509
946893 593536 525
300354 644456 509
837921 620714 525
