1 10 20
100 200 125
201 210 89
900 1000 174
210 201 89
1000 900 174
41462 44239 288
6722 22500 279
32599 15248 308
4625 26589 282
44694 7481 324
46074 28631 324
30416 37551 324
31004 8569 308
8798 45015 324
6094 6140 187
23452 36748 324
18634 23951 282
40006 15392 324
27283 45188 324
12833 18861 279
1423 8629 262
41413 1239 324
11012 17223 276
22463 48177 324
33837 32928 267
23671 47068 324
6450 25337 282
31685 7477 308
1728 30344 308
7451 5208 262
8531 44280 324
34890 6621 311
43106 12943 324
47951 28673 324
47416 16607 324
2821 17040 276
22522 31678 308
11519 5331 268
15350 39871 324
5971 24346 282
35878 30778 324
43171 36056 306
28605 3655 308
34807 11493 311
47770 40572 314
23286 38607 324
14478 35505 311
435 15322 276
37098 37760 306
33815 29620 285
9443 18681 279
49631 574 324
20045 5441 279
3183 41196 324
31718 11876 308
35470 21265 311
43161 6961 324
5354 33800 308
43788 27400 324
27367 10805 308
23380 26755 308
34728 5880 311
15425 28518 308
30830 33227 285
25568 26610 277
16163 10991 276
18733 29401 308
17269 47032 324
38481 46266 314
8294 46527 324
43069 42805 239
46030 19635 324
9817 30128 308
43 45352 324
11586 33953 308
44426 2752 324
48539 13789 324
29351 42096 324
7399 7812 239
15668 42925 324
22563 7000 279
35560 16358 311
2756 9859 262
32212 37646 324
41958 11015 324
29256 12527 308
14714 24718 282
17696 15510 279
22690 20118 269
1341 2814 209
33602 18552 308
49888 43534 314
26814 22137 308
39894 43028 306
18669 29775 308
49508 27667 324
1496 1572 154
41162 44835 288
21103 7761 279
29449 14677 308
16763 21748 279
25720 18852 282
20819 23576 282
23637 35743 324
34782 32573 311
89135 83469 333
63467 88639 351
90626 95919 333
70751 85822 351
98008 51309 351
61240 66168 330
77185 88693 338
76752 97922 351
73660 75950 325
81639 73076 351
61358 53740 335
64113 77550 351
71413 97558 351
82825 63583 351
63614 89031 351
61009 61374 255
96754 90608 333
78636 86800 338
73636 96859 351
72355 57751 335
86156 98389 333
51344 83052 351
89465 88864 315
96437 52587 351
92561 54386 351
91620 61123 351
81870 52693 351
75239 52021 340
92292 98197 328
84427 65768 351
68496 73593 325
93692 91042 333
74319 72071 294
73717 98271 351
61830 82340 351
95754 61457 351
85703 82979 320
78850 54277 351
60278 58240 317
73412 88974 351
967800 950726 414
983268 924986 507
957687 949662 414
901970 963104 507
909788 944385 507
913799 993894 507
958364 925567 507
964048 968826 365
999852 940789 458
904250 930071 476
396374 396874 299
309536 310036 340
349220 349720 304
350123 350623 304
7877 8377 252
167384 167884 290
287844 288344 327
223271 223771 324
13071 13571 276
202220 202720 342
156635 157135 308
67422 67922 312
10758 11258 268
431791 432291 343
436963 437463 387
300291 300791 340
311137 311637 309
188283 188783 316
420844 421344 281
209724 210224 342
365899 366399 330
158575 159075 308
113476 113976 292
393700 394200 361
130143 130643 331
385094 385594 348
110069 110569 292
289414 289914 327
361152 361652 286
259824 260324 345
191868 192368 329
97475 97975 297
68195 68695 312
151816 152316 308
432296 432796 387
252096 252596 319
316155 316655 353
278986 279486 314
435306 435806 250
219507 220007 355
169374 169874 290
189899 190399 329
146797 147297 251
180471 180971 316
132772 133272 331
312204 312704 384
332916 333416 335
348208 348708 335
198783 199283 267
130963 131463 300
334747 335247 322
120663 121163 274
86641 87141 333
227338 227838 293
131040 131540 300
105720 106220 279
439925 440425 294
36756 37256 262
72425 72925 263
315408 315908 278
431960 432460 325
68267 68767 312
57556 58056 273
399426 399926 299
296313 296813 327
14123 14623 209
40932 41432 288
402428 402928 268
327927 328427 322
79865 80365 320
219316 219816 337
62175 62675 255
106513 107013 323
292451 292951 340
449012 449512 369
78552 79052 338
3213 3713 238
185468 185968 285
92365 92865 302
366072 366572 317
159665 160165 308
63237 63737 330
217389 217889 249
308507 309007 327
370981 371481 348
108415 108915 261
385026 385526 348
198226 198726 329
415476 415976 281
447595 448095 325
384732 385232 330
386485 386985 255
247907 248407 319
354985 355485 379
182497 182997 334
161056 161556 277
276027 276527 314
285467 285967 296
378504 379004 317
